%!PS-Adobe-2.0 EPSF-2.0
%%Title: layout.fig
%%Creator: fig2dev Version 3.2 Patchlevel 4
%%CreationDate: Wed Mar 18 00:22:23 2009
%%For: casini@jsblap (Roberto Casini)
%%BoundingBox: 0 0 599 272
%%Magnification: 1.0000
%%EndComments
/$F2psDict 200 dict def
$F2psDict begin
$F2psDict /mtrx matrix put
/col-1 {0 setgray} bind def
/col0 {0.000 0.000 0.000 srgb} bind def
/col1 {0.000 0.000 1.000 srgb} bind def
/col2 {0.000 1.000 0.000 srgb} bind def
/col3 {0.000 1.000 1.000 srgb} bind def
/col4 {1.000 0.000 0.000 srgb} bind def
/col5 {1.000 0.000 1.000 srgb} bind def
/col6 {1.000 1.000 0.000 srgb} bind def
/col7 {1.000 1.000 1.000 srgb} bind def
/col8 {0.000 0.000 0.560 srgb} bind def
/col9 {0.000 0.000 0.690 srgb} bind def
/col10 {0.000 0.000 0.820 srgb} bind def
/col11 {0.530 0.810 1.000 srgb} bind def
/col12 {0.000 0.560 0.000 srgb} bind def
/col13 {0.000 0.690 0.000 srgb} bind def
/col14 {0.000 0.820 0.000 srgb} bind def
/col15 {0.000 0.560 0.560 srgb} bind def
/col16 {0.000 0.690 0.690 srgb} bind def
/col17 {0.000 0.820 0.820 srgb} bind def
/col18 {0.560 0.000 0.000 srgb} bind def
/col19 {0.690 0.000 0.000 srgb} bind def
/col20 {0.820 0.000 0.000 srgb} bind def
/col21 {0.560 0.000 0.560 srgb} bind def
/col22 {0.690 0.000 0.690 srgb} bind def
/col23 {0.820 0.000 0.820 srgb} bind def
/col24 {0.500 0.190 0.000 srgb} bind def
/col25 {0.630 0.250 0.000 srgb} bind def
/col26 {0.750 0.380 0.000 srgb} bind def
/col27 {1.000 0.500 0.500 srgb} bind def
/col28 {1.000 0.630 0.630 srgb} bind def
/col29 {1.000 0.750 0.750 srgb} bind def
/col30 {1.000 0.880 0.880 srgb} bind def
/col31 {1.000 0.840 0.000 srgb} bind def

end
save
newpath 0 272 moveto 0 0 lineto 599 0 lineto 599 272 lineto closepath clip newpath
-169.3 456.3 translate
1 -1 scale

/cp {closepath} bind def
/ef {eofill} bind def
/gr {grestore} bind def
/gs {gsave} bind def
/sa {save} bind def
/rs {restore} bind def
/l {lineto} bind def
/m {moveto} bind def
/rm {rmoveto} bind def
/n {newpath} bind def
/s {stroke} bind def
/sh {show} bind def
/slc {setlinecap} bind def
/slj {setlinejoin} bind def
/slw {setlinewidth} bind def
/srgb {setrgbcolor} bind def
/rot {rotate} bind def
/sc {scale} bind def
/sd {setdash} bind def
/ff {findfont} bind def
/sf {setfont} bind def
/scf {scalefont} bind def
/sw {stringwidth} bind def
/tr {translate} bind def
/tnt {dup dup currentrgbcolor
  4 -2 roll dup 1 exch sub 3 -1 roll mul add
  4 -2 roll dup 1 exch sub 3 -1 roll mul add
  4 -2 roll dup 1 exch sub 3 -1 roll mul add srgb}
  bind def
/shd {dup dup currentrgbcolor 4 -2 roll mul 4 -2 roll mul
  4 -2 roll mul srgb} bind def
/$F2psBegin {$F2psDict begin /$F2psEnteredState save def} def
/$F2psEnd {$F2psEnteredState restore end} def

$F2psBegin
10 setmiterlimit
0 slj 0 slc
 0.06299 0.06299 sc
%
% Fig objects follow
%
% 
% here starts figure with depth 50
% Polyline
7.500 slw
 [60] 0 sd
gs  clippath
8340 3120 m 8292 3156 l 8439 3352 l 8373 3214 l 8487 3316 l cp
eoclip
n 10350 5850 m
 8325 3150 l gs col0 s gr gr
 [] 0 sd
% arrowhead
30.000 slw
n 8487 3316 m 8373 3214 l 8439 3352 l 8445 3310 l 8487 3316 l 
 cp gs 0.00 setgray ef gr  col0 s
% Polyline
7.500 slw
 [45 22 15 22] 0 sd
gs  clippath
7243 4466 m 7219 4521 l 7443 4619 l 7318 4532 l 7467 4564 l cp
eoclip
n 10350 5850 m
 7245 4500 l gs col0 s gr gr
 [] 0 sd
% arrowhead
30.000 slw
n 7467 4564 m 7318 4532 l 7443 4619 l 7428 4579 l 7467 4564 l 
 cp gs 0.00 setgray ef gr  col0 s
% Polyline
45.000 slw
n 12150 4500 m
 8550 7200 l gs col0 s gr 
% Polyline
7.500 slw
gs  clippath
3593 4017 m 3577 4075 l 3814 4137 l 3677 4070 l 3829 4079 l cp
eoclip
n 10350 5850 m
 3600 4050 l gs col0 s gr gr

% arrowhead
30.000 slw
n 3829 4079 m 3677 4070 l 3814 4137 l 3792 4100 l 3829 4079 l 
 cp gs 0.00 setgray ef gr  col0 s
% Polyline
7.500 slw
gs  clippath
2685 5820 m 2685 5880 l 2929 5880 l 2779 5850 l 2929 5820 l cp
eoclip
n 10350 5850 m
 2700 5850 l gs col0 s gr gr

% arrowhead
30.000 slw
n 2929 5820 m 2779 5850 l 2929 5880 l 2899 5850 l 2929 5820 l 
 cp gs 0.00 setgray ef gr  col0 s
% Polyline
2 slj
7.500 slw
gs  clippath
9389 5446 m 9442 5475 l 9510 5350 l 9430 5435 l 9457 5321 l cp
eoclip
n 9748 5047 m 9746 5048 l 9742 5051 l 9736 5056 l 9726 5063 l 9715 5072 l
 9702 5082 l 9688 5094 l 9672 5108 l 9656 5123 l 9638 5141 l
 9618 5162 l 9596 5186 l 9573 5214 l 9553 5239 l 9535 5264 l
 9518 5287 l 9504 5308 l 9491 5329 l 9479 5348 l 9468 5366 l
 9458 5383 l 9449 5399 l 9441 5414 l 9435 5426 l
 9423 5448 l gs col0 s gr gr

% arrowhead
0 slj
n 9457 5321 m 9430 5435 l 9510 5350 l 9473 5355 l 9457 5321 l 
 cp gs 0.00 setgray ef gr  col0 s
% Polyline
2 slj
gs  clippath
9270 4378 m 9236 4328 l 9119 4410 l 9229 4371 l 9153 4459 l cp
eoclip
n 9241 4362 m 9228 4371 l 9220 4378 l 9209 4386 l 9195 4396 l 9180 4408 l
 9162 4422 l 9142 4438 l 9121 4455 l 9098 4474 l 9074 4494 l
 9050 4516 l 9025 4539 l 9000 4563 l 8974 4589 l 8948 4617 l
 8922 4647 l 8895 4679 l 8868 4713 l 8840 4750 l 8812 4790 l
 8784 4834 l 8756 4881 l 8727 4931 l 8700 4983 l 8674 5037 l
 8651 5090 l 8629 5142 l 8611 5193 l 8594 5241 l 8579 5288 l
 8567 5333 l 8556 5376 l 8546 5418 l 8538 5459 l 8531 5498 l
 8524 5537 l 8519 5574 l 8514 5610 l 8510 5645 l 8507 5678 l
 8504 5709 l 8501 5737 l 8499 5763 l 8498 5785 l 8496 5804 l
 8496 5820 l 8495 5832 l 8494 5840 l 8494 5846 l 8494 5849 l

 8494 5850 l gs col0 s gr gr

% arrowhead
0 slj
n 9153 4459 m 9229 4371 l 9119 4410 l 9155 4422 l 9153 4459 l 
 cp gs 0.00 setgray ef gr  col0 s
% Polyline
2 slj
gs  clippath
8100 5262 m 8157 5278 l 8196 5140 l 8137 5241 l 8138 5124 l cp
eoclip
n 8979 4014 m 8978 4015 l 8976 4016 l 8971 4020 l 8965 4025 l 8956 4031 l
 8944 4040 l 8930 4051 l 8913 4065 l 8894 4079 l 8874 4096 l
 8852 4114 l 8829 4134 l 8804 4155 l 8780 4177 l 8754 4201 l
 8728 4226 l 8701 4252 l 8673 4281 l 8644 4312 l 8615 4345 l
 8584 4381 l 8553 4420 l 8520 4462 l 8487 4507 l 8454 4554 l
 8422 4602 l 8392 4649 l 8365 4696 l 8340 4740 l 8317 4782 l
 8296 4822 l 8278 4861 l 8261 4898 l 8245 4934 l 8231 4968 l
 8218 5002 l 8205 5034 l 8194 5065 l 8184 5095 l 8174 5123 l
 8166 5149 l 8158 5173 l 8151 5194 l 8146 5212 l 8142 5227 l
 8138 5238 l
 8133 5256 l gs col0 s gr gr

% arrowhead
0 slj
n 8138 5124 m 8137 5241 l 8196 5140 l 8161 5154 l 8138 5124 l 
 cp gs 0.00 setgray ef gr  col0 s
/Times-BoldItalic ff 360.00 scf sf
8415 3105 m
gs 1 -1 sc (n) col0 sh gr
/Times-BoldItalic ff 360.00 scf sf
7333 4436 m
gs 1 -1 sc (b) col0 sh gr
/Symbol ff 360.00 scf sf
8267 4478 m
gs 1 -1 sc (b) col0 sh gr
/Symbol ff 360.00 scf sf
8465 4898 m
gs 1 -1 sc (a) col0 sh gr
/Symbol ff 360.00 scf sf
9306 5173 m
gs 1 -1 sc (j) col0 sh gr
/Symbol ff 360.00 scf sf
3645 3870 m
gs 1 -1 sc (z) col0 sh gr
/Times-Italic ff 360.00 scf sf
2730 6165 m
gs 1 -1 sc (z) col0 sh gr
% here ends figure;
$F2psEnd
rs
showpage
