\relax 
\citation{CN14}
\@writefile{toc}{\contentsline {section}{\numberline {1}The ViSP IPC GUI}{1}{}\protected@file@percent }
\@writefile{lof}{\contentsline {figure}{\numberline {1}{\ignorespaces  Geometric convention adopted by the ViSP IPC and ICO for the definition of the incidence and diffraction angles (respectively, $\alpha $ and $\beta $) relative to the grating normal $\bm  {n}$. The direction of the incident radiation is $-z$, whereas that for the diffracted radiation is $+\zeta $. The deviation angle between the diffracted and incident radiation is defined by $\delta =\alpha +\beta $, and is a negative quantity for the normal operation of the ViSP (assuming the usual convention of counterclockwise angles being positive). The angle $\varphi $ measures the inclination of the normal to the blazed facets of the grating, $\bm  {b}$, measured from the grating normal.}}{2}{}\protected@file@percent }
\newlabel{fig:layout}{{1}{2}}
\@writefile{toc}{\contentsline {subsection}{\numberline {1.1}ViSP Configuration}{2}{}\protected@file@percent }
\@writefile{lof}{\contentsline {figure}{\numberline {2}{\ignorespaces The ViSP IPC GUI in advanced mode showing a configuration for the triplet of spectral lines H\,\uppercase {i\relax } 656.3\nobreakspace  {}nm, Ca\,\uppercase {ii\relax } 393.4\nobreakspace  {}nm, and Ca\,\uppercase {ii\relax } 854.2\nobreakspace  {}nm.}}{3}{}\protected@file@percent }
\newlabel{fig:ipcgui}{{2}{3}}
\@writefile{toc}{\contentsline {subsection}{\numberline {1.2}Map Setup}{3}{}\protected@file@percent }
\@writefile{toc}{\contentsline {subsection}{\numberline {1.3}Camera \&\ Modulator}{4}{}\protected@file@percent }
\@writefile{toc}{\contentsline {subsection}{\numberline {1.4}Time \&\ Data}{4}{}\protected@file@percent }
\@writefile{toc}{\contentsline {subsection}{\numberline {1.5}Buttons}{4}{}\protected@file@percent }
\citation{CdW14}
\@writefile{toc}{\contentsline {subsection}{\numberline {1.6}Arms}{5}{}\protected@file@percent }
\@writefile{toc}{\contentsline {subsubsection}{\numberline {1.6.1}Arm Inputs}{5}{}\protected@file@percent }
\@writefile{toc}{\contentsline {subsubsection}{\numberline {1.6.2}Arm Outputs}{5}{}\protected@file@percent }
\citation{Ku84}
\@writefile{toc}{\contentsline {section}{\numberline {2}The ViSP ICO GUI}{6}{}\protected@file@percent }
\@writefile{lof}{\contentsline {figure}{\numberline {3}{\ignorespaces The ViSP ICO GUI in advanced mode.}}{7}{}\protected@file@percent }
\newlabel{fig:icogui}{{3}{7}}
\@writefile{toc}{\contentsline {subsection}{\numberline {2.1}Configuration}{7}{}\protected@file@percent }
\@writefile{toc}{\contentsline {subsection}{\numberline {2.2}Grating}{7}{}\protected@file@percent }
\@writefile{toc}{\contentsline {subsection}{\numberline {2.3}LHS Parameters}{8}{}\protected@file@percent }
\@writefile{toc}{\contentsline {subsection}{\numberline {2.4}Buttons}{8}{}\protected@file@percent }
\@writefile{toc}{\contentsline {subsection}{\numberline {2.5}Line Entries}{8}{}\protected@file@percent }
\bibcite{CN14}{1}
\bibcite{CdW14}{2}
\bibcite{Ku84}{3}
\gdef \@abspage@last{9}
