\relax 
\@writefile{toc}{\contentsline {section}{\numberline {1}Decide on Wavelengths to Observe}{1}{}\protected@file@percent }
\@writefile{toc}{\contentsline {section}{\numberline {2}Use the Optimizer to Calculate ViSP Configurations}{1}{}\protected@file@percent }
\@writefile{toc}{\contentsline {section}{\numberline {3}Explore Configurations with the IPC}{1}{}\protected@file@percent }
\@writefile{toc}{\contentsline {section}{\numberline {4}Save the Configuration}{2}{}\protected@file@percent }
\@writefile{toc}{\contentsline {section}{\numberline {5}Notes, Tips, and Tricks}{2}{}\protected@file@percent }
\gdef \@abspage@last{3}
